{
    "count": 87, 
    "next": "https://swapi.co/api/people/?page=2", 
    "previous": null, 
    "results": [
        {
            "name": "Luke Skywalker", 
            "height": "172", 
            "mass": "77", 
            "hair_color": "blond", 
            "skin_color": "fair", 
            "eye_color": "blue", 
            "birth_year": "19BBY", 
            "gender": "male", 
            "homeworld": "https://swapi.co/api/planets/1/"
            } 
            
    ]
}